MEMSFunctions.c:72:16:platform_read	24	static
MEMSFunctions.c:51:16:platform_write	24	static
lis2dh12_reg.c:66:9:lis2dh12_read_reg	8	static
lis2dh12_reg.c:83:9:lis2dh12_write_reg	8	static
lis2dh12_reg.c:103:7:lis2dh12_from_fs2_hr_to_mg	0	static
lis2dh12_reg.c:108:7:lis2dh12_from_fs4_hr_to_mg	0	static
lis2dh12_reg.c:113:7:lis2dh12_from_fs8_hr_to_mg	0	static
lis2dh12_reg.c:118:7:lis2dh12_from_fs16_hr_to_mg	0	static
lis2dh12_reg.c:123:7:lis2dh12_from_lsb_hr_to_celsius	0	static
lis2dh12_reg.c:128:7:lis2dh12_from_fs2_nm_to_mg	0	static
lis2dh12_reg.c:133:7:lis2dh12_from_fs4_nm_to_mg	0	static
lis2dh12_reg.c:138:7:lis2dh12_from_fs8_nm_to_mg	0	static
lis2dh12_reg.c:143:7:lis2dh12_from_fs16_nm_to_mg	0	static
lis2dh12_reg.c:148:7:lis2dh12_from_lsb_nm_to_celsius	0	static
lis2dh12_reg.c:153:7:lis2dh12_from_fs2_lp_to_mg	0	static
lis2dh12_reg.c:158:7:lis2dh12_from_fs4_lp_to_mg	0	static
lis2dh12_reg.c:163:7:lis2dh12_from_fs8_lp_to_mg	0	static
lis2dh12_reg.c:168:7:lis2dh12_from_fs16_lp_to_mg	0	static
lis2dh12_reg.c:173:7:lis2dh12_from_lsb_lp_to_celsius	0	static
lis2dh12_reg.c:198:9:lis2dh12_temp_status_reg_get	8	static
lis2dh12_reg.c:212:9:lis2dh12_temp_data_ready_get	16	static
lis2dh12_reg.c:231:9:lis2dh12_temp_data_ovr_get	16	static
lis2dh12_reg.c:250:9:lis2dh12_temperature_raw_get	8	static
lis2dh12_reg.c:264:9:lis2dh12_temperature_meas_set	24	static
lis2dh12_reg.c:286:9:lis2dh12_temperature_meas_get	16	static
lis2dh12_reg.c:316:9:lis2dh12_operating_mode_set	24	static
lis2dh12_reg.c:357:9:lis2dh12_operating_mode_get	24	static
lis2dh12_reg.c:385:9:lis2dh12_data_rate_set	24	static
lis2dh12_reg.c:406:9:lis2dh12_data_rate_get	16	static
lis2dh12_reg.c:459:9:lis2dh12_high_pass_on_outputs_set	24	static
lis2dh12_reg.c:481:9:lis2dh12_high_pass_on_outputs_get	16	static
lis2dh12_reg.c:506:9:lis2dh12_high_pass_bandwidth_set	24	static
lis2dh12_reg.c:534:9:lis2dh12_high_pass_bandwidth_get	16	static
lis2dh12_reg.c:569:9:lis2dh12_high_pass_mode_set	24	static
lis2dh12_reg.c:590:9:lis2dh12_high_pass_mode_get	16	static
lis2dh12_reg.c:624:9:lis2dh12_full_scale_set	24	static
lis2dh12_reg.c:645:9:lis2dh12_full_scale_get	16	static
lis2dh12_reg.c:679:9:lis2dh12_block_data_update_set	24	static
lis2dh12_reg.c:700:9:lis2dh12_block_data_update_get	16	static
lis2dh12_reg.c:720:9:lis2dh12_filter_reference_set	8	static
lis2dh12_reg.c:736:9:lis2dh12_filter_reference_get	8	static
lis2dh12_reg.c:750:9:lis2dh12_xl_data_ready_get	16	static
lis2dh12_reg.c:768:9:lis2dh12_xl_data_ovr_get	16	static
lis2dh12_reg.c:786:9:lis2dh12_acceleration_raw_get	8	static
lis2dh12_reg.c:812:9:lis2dh12_device_id_get	8	static
lis2dh12_reg.c:826:9:lis2dh12_self_test_set	24	static
lis2dh12_reg.c:847:9:lis2dh12_self_test_get	16	static
lis2dh12_reg.c:878:9:lis2dh12_data_format_set	24	static
lis2dh12_reg.c:899:9:lis2dh12_data_format_get	16	static
lis2dh12_reg.c:927:9:lis2dh12_boot_set	24	static
lis2dh12_reg.c:948:9:lis2dh12_boot_get	16	static
lis2dh12_reg.c:967:9:lis2dh12_status_get	8	static
lis2dh12_reg.c:994:9:lis2dh12_int1_gen_conf_set	8	static
lis2dh12_reg.c:1010:9:lis2dh12_int1_gen_conf_get	8	static
lis2dh12_reg.c:1026:9:lis2dh12_int1_gen_source_get	8	static
lis2dh12_reg.c:1043:9:lis2dh12_int1_gen_threshold_set	24	static
lis2dh12_reg.c:1066:9:lis2dh12_int1_gen_threshold_get	16	static
lis2dh12_reg.c:1086:9:lis2dh12_int1_gen_duration_set	24	static
lis2dh12_reg.c:1108:9:lis2dh12_int1_gen_duration_get	16	static
lis2dh12_reg.c:1140:9:lis2dh12_int2_gen_conf_set	8	static
lis2dh12_reg.c:1156:9:lis2dh12_int2_gen_conf_get	8	static
lis2dh12_reg.c:1171:9:lis2dh12_int2_gen_source_get	8	static
lis2dh12_reg.c:1188:9:lis2dh12_int2_gen_threshold_set	24	static
lis2dh12_reg.c:1211:9:lis2dh12_int2_gen_threshold_get	16	static
lis2dh12_reg.c:1231:9:lis2dh12_int2_gen_duration_set	24	static
lis2dh12_reg.c:1253:9:lis2dh12_int2_gen_duration_get	16	static
lis2dh12_reg.c:1284:9:lis2dh12_high_pass_int_conf_set	24	static
lis2dh12_reg.c:1306:9:lis2dh12_high_pass_int_conf_get	16	static
lis2dh12_reg.c:1353:9:lis2dh12_pin_int1_config_set	8	static
lis2dh12_reg.c:1369:9:lis2dh12_pin_int1_config_get	8	static
lis2dh12_reg.c:1386:9:lis2dh12_int2_pin_detect_4d_set	24	static
lis2dh12_reg.c:1408:9:lis2dh12_int2_pin_detect_4d_get	16	static
lis2dh12_reg.c:1429:9:lis2dh12_int2_pin_notification_mode_set	24	static
lis2dh12_reg.c:1453:9:lis2dh12_int2_pin_notification_mode_get	16	static
lis2dh12_reg.c:1483:9:lis2dh12_int1_pin_detect_4d_set	24	static
lis2dh12_reg.c:1505:9:lis2dh12_int1_pin_detect_4d_get	16	static
lis2dh12_reg.c:1525:9:lis2dh12_int1_pin_notification_mode_set	24	static
lis2dh12_reg.c:1548:9:lis2dh12_int1_pin_notification_mode_get	16	static
lis2dh12_reg.c:1577:9:lis2dh12_pin_int2_config_set	8	static
lis2dh12_reg.c:1593:9:lis2dh12_pin_int2_config_get	8	static
lis2dh12_reg.c:1620:9:lis2dh12_fifo_set	24	static
lis2dh12_reg.c:1641:9:lis2dh12_fifo_get	16	static
lis2dh12_reg.c:1660:9:lis2dh12_fifo_watermark_set	24	static
lis2dh12_reg.c:1681:9:lis2dh12_fifo_watermark_get	16	static
lis2dh12_reg.c:1700:9:lis2dh12_fifo_trigger_event_set	24	static
lis2dh12_reg.c:1722:9:lis2dh12_fifo_trigger_event_get	16	static
lis2dh12_reg.c:1751:9:lis2dh12_fifo_mode_set	24	static
lis2dh12_reg.c:1772:9:lis2dh12_fifo_mode_get	16	static
lis2dh12_reg.c:1806:9:lis2dh12_fifo_status_get	8	static
lis2dh12_reg.c:1821:9:lis2dh12_fifo_data_level_get	16	static
lis2dh12_reg.c:1839:9:lis2dh12_fifo_empty_flag_get	16	static
lis2dh12_reg.c:1857:9:lis2dh12_fifo_ovr_flag_get	16	static
lis2dh12_reg.c:1875:9:lis2dh12_fifo_fth_flag_get	16	static
lis2dh12_reg.c:1906:9:lis2dh12_tap_conf_set	8	static
lis2dh12_reg.c:1921:9:lis2dh12_tap_conf_get	8	static
lis2dh12_reg.c:1935:9:lis2dh12_tap_source_get	8	static
lis2dh12_reg.c:1950:9:lis2dh12_tap_threshold_set	24	static
lis2dh12_reg.c:1972:9:lis2dh12_tap_threshold_get	16	static
lis2dh12_reg.c:1994:9:lis2dh12_tap_notification_mode_set	24	static
lis2dh12_reg.c:2019:9:lis2dh12_tap_notification_mode_get	16	static
lis2dh12_reg.c:2050:9:lis2dh12_shock_dur_set	24	static
lis2dh12_reg.c:2073:9:lis2dh12_shock_dur_get	16	static
lis2dh12_reg.c:2095:9:lis2dh12_quiet_dur_set	24	static
lis2dh12_reg.c:2119:9:lis2dh12_quiet_dur_get	16	static
lis2dh12_reg.c:2141:9:lis2dh12_double_tap_timeout_set	24	static
lis2dh12_reg.c:2165:9:lis2dh12_double_tap_timeout_get	16	static
lis2dh12_reg.c:2199:9:lis2dh12_act_threshold_set	24	static
lis2dh12_reg.c:2222:9:lis2dh12_act_threshold_get	16	static
lis2dh12_reg.c:2242:9:lis2dh12_act_timeout_set	24	static
lis2dh12_reg.c:2264:9:lis2dh12_act_timeout_get	16	static
lis2dh12_reg.c:2296:9:lis2dh12_pin_sdo_sa0_mode_set	24	static
lis2dh12_reg.c:2318:9:lis2dh12_pin_sdo_sa0_mode_get	16	static
lis2dh12_reg.c:2347:9:lis2dh12_spi_mode_set	24	static
lis2dh12_reg.c:2368:9:lis2dh12_spi_mode_get	16	static
MEMSFunctions.c:16:6:MEMS_init	8	static
